\relax 
\providecommand\hyper@newdestlabel[2]{}
\providecommand\zref@newlabel[2]{}
\providecommand\HyperFirstAtBeginDocument{\AtBeginDocument}
\HyperFirstAtBeginDocument{\ifx\hyper@anchor\@undefined
\global\let\oldcontentsline\contentsline
\gdef\contentsline#1#2#3#4{\oldcontentsline{#1}{#2}{#3}}
\global\let\oldnewlabel\newlabel
\gdef\newlabel#1#2{\newlabelxx{#1}#2}
\gdef\newlabelxx#1#2#3#4#5#6{\oldnewlabel{#1}{{#2}{#3}}}
\AtEndDocument{\ifx\hyper@anchor\@undefined
\let\contentsline\oldcontentsline
\let\newlabel\oldnewlabel
\fi}
\fi}
\global\let\hyper@last\relax 
\gdef\HyperFirstAtBeginDocument#1{#1}
\providecommand*\HyPL@Entry[1]{}
\HyPL@Entry{0<</S/D>>}
\@writefile{toc}{\contentsline {section}{\numberline {1}مقدمه}{2}{section.1}}
\@writefile{lof}{\contentsline {figure}{\numberline {1}{\ignorespaces فلوچارت فرایند کلّی تشخیص نوع حرکت}}{2}{figure.1}}
\newlabel{fig01}{{1}{2}{فلوچارت فرایند کلّی تشخیص نوع حرکت}{figure.1}{}}
\@writefile{toc}{\contentsline {section}{\numberline {2}پیش‌پردازش}{2}{section.2}}
\@writefile{toc}{\contentsline {section}{\numberline {3} تشخیص زمان شروع حرکت}{3}{section.3}}
\@writefile{lof}{\contentsline {figure}{\numberline {2}{\ignorespaces فلوچارت فرایند تشخیص زمان شروع حرکت}}{3}{figure.2}}
\newlabel{fig02}{{2}{3}{فلوچارت فرایند تشخیص زمان شروع حرکت}{figure.2}{}}
\@writefile{toc}{\contentsline {section}{\numberline {4}طبقه‌بندی نوع حرکت}{3}{section.4}}
\@writefile{toc}{\contentsline {subsection}{\numberline {4‏.‏1}استخراج ویژگی‌ها از سیگنال}{3}{subsection.4.1}}
\@writefile{lof}{\contentsline {figure}{\numberline {3}{\ignorespaces فلوچارت فرایند انتخاب ویژگی و طبقه‌بندی‌کننده مناسب}}{4}{figure.3}}
\newlabel{fig03}{{3}{4}{فلوچارت فرایند انتخاب ویژگی و طبقه‌بندی‌کننده مناسب}{figure.3}{}}
\bibcite{Lorig}{1}
\bibcite{Elmes}{2}
\bibcite{Lunder}{3}
\@writefile{toc}{\contentsline {subsection}{\numberline {4‏.‏2}انتخاب ویژگی‌ها}{5}{subsection.4.2}}
\@writefile{toc}{\contentsline {subsection}{\numberline {4‏.‏3}روش‌های طبقه بندی و \lr {Hold out validation}}{5}{subsection.4.3}}
\@writefile{toc}{\contentsline {subsection}{\numberline {4‏.‏4}طبقه‌بندی داده‌های تست}{5}{subsection.4.4}}
\bibcite{Kroupi}{4}
\bibcite{Lowen}{5}
